…
Reshape data (20 points)
------------------------

Now we have got the data from all 7 waves in the same data frame **all7** in the wide format. Note that the panel is unbalanced, i.e. we included all people who participated in at least one wave of the survey. Reshape the data to the long format. The resulting data frame should have six columns for six variables.

``` r
Long <- all7 %>%                                                                    # Create Long from all7, by
  pivot_longer(a_memorig:g_vote6, names_to = "variable", values_to = "value") %>%   # lengthening the data stored between a_memorig and g_vote6, naming the variable col. 'variable' and the value col. 'value' (hence creating a 'superlong' data-frame), and then
  separate(variable, into = c("wave", "variable"), sep = "_", extra = "merge") %>%  # separating 'variable' into a var. 'wave' and a var. 'variable' by the character '_', whilst only splitting additional pieces a maximum of length(into) times, and then
  pivot_wider(names_from = variable, values_from = value)                           # widening the data, taking vars. from 'variable' and obs. from 'value'
Long                                                                                # Print Long
```

    ## # A tibble: 584,234 x 6
    ##        pidp wave  memorig sex_dv age_dv vote6
    ##       <int> <chr>   <int>  <int>  <int> <int>
    ##  1 68001367 a           1      1     39     3
    ##  2 68001367 b          NA     NA     NA    NA
    ##  3 68001367 c          NA     NA     NA    NA
    ##  4 68001367 d          NA     NA     NA    NA
    ##  5 68001367 e          NA     NA     NA    NA
    ##  6 68001367 f          NA     NA     NA    NA
    ##  7 68001367 g          NA     NA     NA    NA
    ##  8 68004087 a           1      1     59     2
    ##  9 68004087 b           1      1     60     2
    ## 10 68004087 c           1      1     61     2
    ## # … with 584,224 more rows
…
  mutate(c_Delta = a_Delta) %>%
  mutate(d_Delta = a_Delta) %>%
  mutate(e_Delta = a_Delta) %>%
  mutate(f_Delta = a_Delta) %>%
  mutate(g_Delta = a_Delta) %>%
  pivot_longer(a_memorig:g_Delta, names_to = "variable", values_to = "value") %>%   # Pivot back to long format
  separate(variable, into = c("wave", "variable"), sep = "_", extra = "merge") %>%
  pivot_wider(names_from = variable, values_from = value) %>%
  filter(memorig==1) %>%                                                            # Filtering for only GB respondents again
  mutate(sex_dv = ifelse(sex_dv==1, "male",                                         # Recoding sex_dv again
                         ifelse(sex_dv==2, "female", NA)))
Stable                                                                              # Confirming code ran correctly
```

    ## # A tibble: 113,806 x 7
    ##        pidp wave  memorig sex_dv age_dv vote6 Delta
    ##       <int> <chr>   <int> <chr>   <int> <int> <int>
    ##  1 68004087 a           1 male       59     2     2
    ##  2 68004087 b           1 male       60     2     2
    ##  3 68004087 c           1 male       61     2     2
    ##  4 68004087 d           1 male       62     1     2
    ##  5 68004087 e           1 male       63     2     2
    ##  6 68004087 f           1 male       64     2     2
    ##  7 68004087 g           1 male       65     2     2
    ##  8 68006127 a           1 female     39     4     0
    ##  9 68006127 b           1 female     40     4     0
    ## 10 68006127 c           1 female     41     4     0
    ## # … with 113,796 more rows
…
``` r
meanDelta.age <- Stable %>%                                                         # Tabulating Delta by age (wave 1)
  filter(wave=="a") %>%
  group_by(age_dv) %>%
  filter(!is.na(age_dv)) %>%
  summarise(meanDelta = mean(Delta, na.rm = TRUE))

meanDelta.age                                                                       # Confirming code ran correctly               
```

    ## # A tibble: 79 x 2
    ##    age_dv meanDelta
    ##     <int>     <dbl>
    ##  1     15      2   
    ##  2     16      2.78
    ##  3     17      2.55
    ##  4     18      2.83
    ##  5     19      2.82
    ##  6     20      2.39
    ##  7     21      3.08
    ##  8     22      2.59
    ##  9     23      2.42
    ## 10     24      2.15
    ## # … with 69 more rows
…
